\beamer@sectionintoc {1}{内容1}{4}{0}{1}
\beamer@subsectionintoc {1}{1}{サブセクション}{5}{0}{1}
\beamer@sectionintoc {2}{内容2}{10}{0}{2}
\beamer@subsectionintoc {2}{1}{サブセクション}{11}{0}{2}
\beamer@subsectionintoc {2}{2}{Contents2.tex}{16}{0}{2}
