\relax 
\providecommand\hyper@newdestlabel[2]{}
\providecommand\HyperFirstAtBeginDocument{\AtBeginDocument}
\HyperFirstAtBeginDocument{\ifx\hyper@anchor\@undefined
\global\let\oldcontentsline\contentsline
\gdef\contentsline#1#2#3#4{\oldcontentsline{#1}{#2}{#3}}
\global\let\oldnewlabel\newlabel
\gdef\newlabel#1#2{\newlabelxx{#1}#2}
\gdef\newlabelxx#1#2#3#4#5#6{\oldnewlabel{#1}{{#2}{#3}}}
\AtEndDocument{\ifx\hyper@anchor\@undefined
\let\contentsline\oldcontentsline
\let\newlabel\oldnewlabel
\fi}
\fi}
\global\let\hyper@last\relax 
\gdef\HyperFirstAtBeginDocument#1{#1}
\providecommand*\HyPL@Entry[1]{}
\HyPL@Entry{0<</P(1)>>}
\@writefile{nav}{\headcommand {\slideentry {0}{0}{1}{1/1}{}{0}}}
\@writefile{nav}{\headcommand {\beamer@framepages {1}{1}}}
\HyPL@Entry{1<</P(2)>>}
\@writefile{nav}{\headcommand {\slideentry {0}{0}{2}{2/2}{}{0}}}
\@writefile{nav}{\headcommand {\beamer@framepages {2}{2}}}
\HyPL@Entry{2<</P(3)>>}
\@writefile{nav}{\headcommand {\slideentry {0}{0}{3}{3/3}{}{0}}}
\@writefile{nav}{\headcommand {\beamer@framepages {3}{3}}}
\HyPL@Entry{3<</P(4)>>}
\@writefile{toc}{\beamer@sectionintoc {1}{内容1}{4}{0}{1}}
\@writefile{nav}{\headcommand {\beamer@sectionpages {1}{3}}}
\@writefile{nav}{\headcommand {\beamer@subsectionpages {1}{3}}}
\@writefile{nav}{\headcommand {\sectionentry {1}{内容1}{4}{内容1}{0}}}
\@writefile{nav}{\headcommand {\slideentry {1}{0}{1}{4/4}{}{0}}}
\@writefile{nav}{\headcommand {\beamer@framepages {4}{4}}}
\HyPL@Entry{4<</P(5)>>}
\@writefile{toc}{\beamer@subsectionintoc {1}{1}{サブセクション}{5}{0}{1}}
\@writefile{nav}{\headcommand {\beamer@subsectionpages {4}{4}}}
\@writefile{nav}{\headcommand {\beamer@subsectionentry {0}{1}{1}{5}{サブセクション}}}
\@writefile{nav}{\headcommand {\slideentry {1}{1}{1}{5/5}{サブセクション}{0}}}
\@writefile{nav}{\headcommand {\beamer@framepages {5}{5}}}
\HyPL@Entry{5<</P(6)>>}
\@writefile{nav}{\headcommand {\slideentry {1}{1}{2}{6/6}{サブセクション}{0}}}
\@writefile{nav}{\headcommand {\beamer@framepages {6}{6}}}
\HyPL@Entry{6<</P(7)>>}
\@writefile{nav}{\headcommand {\slideentry {1}{1}{3}{7/7}{サブセクション}{0}}}
\@writefile{nav}{\headcommand {\beamer@framepages {7}{7}}}
\HyPL@Entry{7<</P(8)>>}
\@writefile{nav}{\headcommand {\slideentry {1}{1}{4}{8/8}{サブセクション}{0}}}
\@writefile{nav}{\headcommand {\beamer@framepages {8}{8}}}
\HyPL@Entry{8<</P(9)>>}
\@writefile{nav}{\headcommand {\slideentry {1}{1}{5}{9/9}{サブセクション}{0}}}
\@writefile{nav}{\headcommand {\beamer@framepages {9}{9}}}
\HyPL@Entry{9<</P(10)>>}
\@writefile{toc}{\beamer@sectionintoc {2}{内容2}{10}{0}{2}}
\@writefile{nav}{\headcommand {\beamer@sectionpages {4}{9}}}
\@writefile{nav}{\headcommand {\beamer@subsectionpages {5}{9}}}
\@writefile{nav}{\headcommand {\sectionentry {2}{内容2}{10}{内容2}{0}}}
\@writefile{nav}{\headcommand {\slideentry {2}{0}{1}{10/10}{}{0}}}
\@writefile{nav}{\headcommand {\beamer@framepages {10}{10}}}
\HyPL@Entry{10<</P(11)>>}
\@writefile{toc}{\beamer@subsectionintoc {2}{1}{サブセクション}{11}{0}{2}}
\@writefile{nav}{\headcommand {\beamer@subsectionpages {10}{10}}}
\@writefile{nav}{\headcommand {\beamer@subsectionentry {0}{2}{1}{11}{サブセクション}}}
\@writefile{nav}{\headcommand {\slideentry {2}{1}{1}{11/11}{サブセクション}{0}}}
\@writefile{nav}{\headcommand {\beamer@framepages {11}{11}}}
\HyPL@Entry{11<</P(12)>>}
\@writefile{nav}{\headcommand {\slideentry {2}{1}{2}{12/12}{サブセクション}{0}}}
\@writefile{nav}{\headcommand {\beamer@framepages {12}{12}}}
\HyPL@Entry{12<</P(13)>>}
\@writefile{nav}{\headcommand {\slideentry {2}{1}{3}{13/13}{サブセクション}{0}}}
\@writefile{nav}{\headcommand {\beamer@framepages {13}{13}}}
\HyPL@Entry{13<</P(14)>>}
\@writefile{nav}{\headcommand {\slideentry {2}{1}{4}{14/14}{サブセクション}{0}}}
\@writefile{nav}{\headcommand {\beamer@framepages {14}{14}}}
\HyPL@Entry{14<</P(15)>>}
\@writefile{nav}{\headcommand {\slideentry {2}{1}{5}{15/15}{サブセクション}{0}}}
\@writefile{nav}{\headcommand {\beamer@framepages {15}{15}}}
\HyPL@Entry{15<</P(16)>>}
\@writefile{toc}{\beamer@subsectionintoc {2}{2}{Contents2.tex}{16}{0}{2}}
\@writefile{nav}{\headcommand {\beamer@subsectionpages {11}{15}}}
\@writefile{nav}{\headcommand {\beamer@subsectionentry {0}{2}{2}{16}{Contents2.tex}}}
\@writefile{nav}{\headcommand {\slideentry {2}{2}{1}{16/16}{Contents2.tex}{0}}}
\@writefile{nav}{\headcommand {\beamer@framepages {16}{16}}}
\HyPL@Entry{16<</P(17)>>}
\@writefile{nav}{\headcommand {\slideentry {2}{2}{2}{17/17}{Contents2.tex}{0}}}
\@writefile{nav}{\headcommand {\beamer@framepages {17}{17}}}
\HyPL@Entry{17<</P(18)>>}
\@writefile{nav}{\headcommand {\slideentry {2}{2}{3}{18/18}{Contents2.tex}{0}}}
\@writefile{nav}{\headcommand {\beamer@framepages {18}{18}}}
\HyPL@Entry{18<</P(19)>>}
\@writefile{nav}{\headcommand {\slideentry {2}{2}{4}{19/19}{Contents2.tex}{0}}}
\@writefile{nav}{\headcommand {\beamer@framepages {19}{19}}}
\@writefile{nav}{\headcommand {\beamer@partpages {1}{19}}}
\@writefile{nav}{\headcommand {\beamer@subsectionpages {16}{19}}}
\@writefile{nav}{\headcommand {\beamer@sectionpages {10}{19}}}
\@writefile{nav}{\headcommand {\beamer@documentpages {19}}}
\@writefile{nav}{\headcommand {\gdef \inserttotalframenumber {19}}}
